#
# A fatal error has been detected by the Java Runtime Environment:
#
#  SIGSEGV (0xb) at pc=0x0000000110575436, pid=71142, tid=0x0000000000006e03
#
# JRE version: OpenJDK Runtime Environment (8.0_262-b10) (build 1.8.0_262-internal-b10)
# Java VM: OpenJDK 64-Bit Server VM (25.262-b10 mixed mode bsd-amd64 compressed oops)
# Problematic frame:
# V  [libjvm.dylib+0x575436]  Unsafe_SetByte+0xd2
#
# Failed to write core dump. Core dumps have been disabled. To enable core dumping, try "ulimit -c unlimited" before starting Java again
#
# If you would like to submit a bug report, please visit:
#   http://bugreport.java.com/bugreport/crash.jsp
#

---------------  T H R E A D  ---------------

Current thread (0x00007fa903225000):  JavaThread "AsyncHttpClient-1-2" daemon [_thread_in_vm, id=28163, stack(0x0000700007c01000,0x0000700007d01000)]

siginfo: si_signo: 11 (SIGSEGV), si_code: 1 (SEGV_MAPERR), si_addr: 0x0000000000000000

Registers:
RAX=0x00000001107101c0, RBX=0x00007fa903225000, RCX=0x00007fa907500005, RDX=0x0000000000000000
RSP=0x0000700007cff250, RBP=0x0000700007cff280, RSI=0x0000700007cff340, RDI=0x00007fa903225250
R8 =0x000000000000002f, R9 =0x00000001106de608, R10=0x00000001109ec3db, R11=0x00000001104ec5d5
R12=0x0000000000000000, R13=0x0000000128fa8e60, R14=0x000000000000002f, R15=0x00007fa907500005
RIP=0x0000000110575436, EFLAGS=0x0000000000010246, ERR=0x0000000000000004
  TRAPNO=0x000000000000000e

Top of Stack: (sp=0x0000700007cff250)
0x0000700007cff250:   00007fa903225000 00007fa903225000
0x0000700007cff260:   0000000128fa8e60 0000000000000000
0x0000700007cff270:   0000700007cff340 00007fa903225000
0x0000700007cff280:   0000700007cff300 00000001109ec407
0x0000700007cff290:   0000000128fa8e60 0000700007cff340
0x0000700007cff2a0:   0000700007cff300 00000001109ec159
0x0000700007cff2b0:   00007fa903225000 00000001109ec122
0x0000700007cff2c0:   0000700007cff2c0 0000000128fa8e60
0x0000700007cff2d0:   0000700007cff340 0000000128fd89c8
0x0000700007cff2e0:   0000000000000000 0000000128fa8e60
0x0000700007cff2f0:   0000000000000000 0000700007cff320
0x0000700007cff300:   0000700007cff388 00000001109dbffd
0x0000700007cff310:   0000000000000000 00000001109e5a58
0x0000700007cff320:   000000000000002f 00007fa907500005
0x0000700007cff330:   0000700007cff388 0000000000000000
0x0000700007cff340:   00000006c0165900 0000700007cff348
0x0000700007cff350:   000000012c0205ee 0000700007cff3b0
0x0000700007cff360:   000000012c023208 0000000000000000
0x0000700007cff370:   000000012c020620 0000700007cff320
0x0000700007cff380:   0000700007cff398 0000700007cff3f8
0x0000700007cff390:   00000001109dbffd 000000000000002f
0x0000700007cff3a0:   00007fa907500005 00000001109e7507
0x0000700007cff3b0:   0000000000000000 0000700007cff3b8
0x0000700007cff3c0:   000000012bfe1eb3 0000700007cff420
0x0000700007cff3d0:   000000012c01aa48 0000000000000000
0x0000700007cff3e0:   000000012bfe1ee8 0000700007cff398
0x0000700007cff3f0:   0000700007cff408 0000700007cff468
0x0000700007cff400:   00000001109dbffd 000000000000002f
0x0000700007cff410:   00007fa907500005 0000000000000000
0x0000700007cff420:   0000000000000000 0000700007cff428
0x0000700007cff430:   000000012c12eaf9 0000700007cff4e8
0x0000700007cff440:   000000012c1508a0 0000000000000000 

Instructions: (pc=0x0000000110575436)
0x0000000110575416:   00 30 74 08 48 89 df e8 02 96 fe ff c7 83 c8 02
0x0000000110575426:   00 00 06 00 00 00 48 89 5d d8 41 f6 c4 01 75 06
0x0000000110575436:   49 8b 04 24 eb 08 4c 89 e7 e8 06 f5 db ff 46 88
0x0000000110575446:   34 38 48 8d 7d d8 e8 cb 79 de ff 48 8d 7d d0 e8 

Register to memory mapping:

RAX=0x00000001107101c0: _ZN20SafepointSynchronize6_stateE+0 in /Library/Java/JavaVirtualMachines/openlogic-openjdk-8.jdk/Contents/Home/jre/lib/server/libjvm.dylib at 0x0000000110000000
RBX=0x00007fa903225000 is a thread
RCX=0x00007fa907500005 is an unknown value
RDX=0x0000000000000000 is an unknown value
RSP=0x0000700007cff250 is pointing into the stack for thread: 0x00007fa903225000
RBP=0x0000700007cff280 is pointing into the stack for thread: 0x00007fa903225000
RSI=0x0000700007cff340 is pointing into the stack for thread: 0x00007fa903225000
RDI=0x00007fa903225250 is an unknown value
R8 =0x000000000000002f is an unknown value
R9 =0x00000001106de608: _ZTV24external_word_Relocation+0x10 in /Library/Java/JavaVirtualMachines/openlogic-openjdk-8.jdk/Contents/Home/jre/lib/server/libjvm.dylib at 0x0000000110000000
R10=0x00000001109ec3db is at code_begin+859 in an Interpreter codelet
method entry point (kind = native)  [0x00000001109ec080, 0x00000001109eca00]  2432 bytes
R11=0x00000001104ec5d5: throw_unsatisfied_link_error+0 in /Library/Java/JavaVirtualMachines/openlogic-openjdk-8.jdk/Contents/Home/jre/lib/server/libjvm.dylib at 0x0000000110000000
R12=0x0000000000000000 is an unknown value
R13={method} {0x0000000128fa8e60} 'putByte' '(Ljava/lang/Object;JB)V' in 'sun/misc/Unsafe'
R14=0x000000000000002f is an unknown value
R15=0x00007fa907500005 is an unknown value


Stack: [0x0000700007c01000,0x0000700007d01000],  sp=0x0000700007cff250,  free space=1016k
Native frames: (J=compiled Java code, j=interpreted, Vv=VM code, C=native code)
V  [libjvm.dylib+0x575436]  Unsafe_SetByte+0xd2
j  sun.misc.Unsafe.putByte(Ljava/lang/Object;JB)V+0
j  io.netty.util.internal.PlatformDependent0.putByte(Ljava/lang/Object;JB)V+6
j  io.netty.util.internal.PlatformDependent.putByte(Ljava/lang/Object;JB)V+3
j  io.netty.buffer.ByteBufUtil.unsafeWriteUtf8([BJILjava/lang/CharSequence;II)I+73
j  io.netty.buffer.ByteBufUtil.writeUtf8(Lio/netty/buffer/AbstractByteBuf;IILjava/lang/CharSequence;II)I+79
j  io.netty.buffer.ByteBufUtil.writeUtf8(Lio/netty/buffer/AbstractByteBuf;IILjava/lang/CharSequence;I)I+7
j  io.netty.buffer.AbstractByteBuf.setCharSequence0(ILjava/lang/CharSequence;Ljava/nio/charset/Charset;Z)I+55
j  io.netty.buffer.AbstractByteBuf.writeCharSequence(Ljava/lang/CharSequence;Ljava/nio/charset/Charset;)I+8
j  io.netty.handler.codec.http.HttpRequestEncoder.encodeInitialLine(Lio/netty/buffer/ByteBuf;Lio/netty/handler/codec/http/HttpRequest;)V+144
j  io.netty.handler.codec.http.HttpRequestEncoder.encodeInitialLine(Lio/netty/buffer/ByteBuf;Lio/netty/handler/codec/http/HttpMessage;)V+6
j  io.netty.handler.codec.http.HttpObjectEncoder.encode(Lio/netty/channel/ChannelHandlerContext;Ljava/lang/Object;Ljava/util/List;)V+88
j  io.netty.handler.codec.http.HttpClientCodec$Encoder.encode(Lio/netty/channel/ChannelHandlerContext;Ljava/lang/Object;Ljava/util/List;)V+52
j  io.netty.handler.codec.MessageToMessageEncoder.write(Lio/netty/channel/ChannelHandlerContext;Ljava/lang/Object;Lio/netty/channel/ChannelPromise;)V+25
j  io.netty.channel.CombinedChannelDuplexHandler.write(Lio/netty/channel/ChannelHandlerContext;Ljava/lang/Object;Lio/netty/channel/ChannelPromise;)V+45
j  io.netty.channel.AbstractChannelHandlerContext.invokeWrite0(Ljava/lang/Object;Lio/netty/channel/ChannelPromise;)V+10
j  io.netty.channel.AbstractChannelHandlerContext.invokeWrite(Ljava/lang/Object;Lio/netty/channel/ChannelPromise;)V+10
j  io.netty.channel.AbstractChannelHandlerContext.write(Ljava/lang/Object;ZLio/netty/channel/ChannelPromise;)V+101
j  io.netty.channel.AbstractChannelHandlerContext.write(Ljava/lang/Object;Lio/netty/channel/ChannelPromise;)Lio/netty/channel/ChannelFuture;+4
j  io.netty.handler.stream.ChunkedWriteHandler.doFlush(Lio/netty/channel/ChannelHandlerContext;)V+369
j  io.netty.handler.stream.ChunkedWriteHandler.flush(Lio/netty/channel/ChannelHandlerContext;)V+2
j  io.netty.channel.AbstractChannelHandlerContext.invokeFlush0()V+8
j  io.netty.channel.AbstractChannelHandlerContext.invokeWriteAndFlush(Ljava/lang/Object;Lio/netty/channel/ChannelPromise;)V+14
j  io.netty.channel.AbstractChannelHandlerContext.write(Ljava/lang/Object;ZLio/netty/channel/ChannelPromise;)V+90
j  io.netty.channel.AbstractChannelHandlerContext.writeAndFlush(Ljava/lang/Object;Lio/netty/channel/ChannelPromise;)Lio/netty/channel/ChannelFuture;+4
j  io.netty.channel.DefaultChannelPipeline.writeAndFlush(Ljava/lang/Object;Lio/netty/channel/ChannelPromise;)Lio/netty/channel/ChannelFuture;+6
j  io.netty.channel.AbstractChannel.writeAndFlush(Ljava/lang/Object;Lio/netty/channel/ChannelPromise;)Lio/netty/channel/ChannelFuture;+6
j  org.asynchttpclient.netty.request.body.NettyInputStreamBody.write(Lio/netty/channel/Channel;Lorg/asynchttpclient/netty/NettyResponseFuture;)V+93
j  org.asynchttpclient.netty.request.NettyRequestSender.writeRequest(Lorg/asynchttpclient/netty/NettyResponseFuture;Lio/netty/channel/Channel;)V+209
j  org.asynchttpclient.netty.channel.NettyConnectListener.writeRequest(Lio/netty/channel/Channel;)V+101
j  org.asynchttpclient.netty.channel.NettyConnectListener.onSuccess(Lio/netty/channel/Channel;Ljava/net/InetSocketAddress;)V+232
j  org.asynchttpclient.netty.channel.NettyChannelConnector$1.onSuccess(Lio/netty/channel/Channel;)V+51
j  org.asynchttpclient.netty.SimpleChannelFutureListener.operationComplete(Lio/netty/channel/ChannelFuture;)V+18
j  org.asynchttpclient.netty.SimpleChannelFutureListener.operationComplete(Lio/netty/util/concurrent/Future;)V+5
j  io.netty.util.concurrent.DefaultPromise.notifyListener0(Lio/netty/util/concurrent/Future;Lio/netty/util/concurrent/GenericFutureListener;)V+2
j  io.netty.util.concurrent.DefaultPromise.notifyListeners0(Lio/netty/util/concurrent/DefaultFutureListeners;)V+24
j  io.netty.util.concurrent.DefaultPromise.notifyListenersNow()V+58
j  io.netty.util.concurrent.DefaultPromise.notifyListeners()V+38
j  io.netty.util.concurrent.DefaultPromise.setValue0(Ljava/lang/Object;)Z+34
j  io.netty.util.concurrent.DefaultPromise.setSuccess0(Ljava/lang/Object;)Z+12
j  io.netty.util.concurrent.DefaultPromise.trySuccess(Ljava/lang/Object;)Z+2
j  io.netty.channel.DefaultChannelPromise.trySuccess()Z+2
j  io.netty.channel.nio.AbstractNioChannel$AbstractNioUnsafe.fulfillConnectPromise(Lio/netty/channel/ChannelPromise;Z)V+14
j  io.netty.channel.nio.AbstractNioChannel$AbstractNioUnsafe.finishConnect()V+51
j  io.netty.channel.nio.NioEventLoop.processSelectedKey(Ljava/nio/channels/SelectionKey;Lio/netty/channel/nio/AbstractNioChannel;)V+78
j  io.netty.channel.nio.NioEventLoop.processSelectedKeysOptimized()V+51
j  io.netty.channel.nio.NioEventLoop.processSelectedKeys()V+8
j  io.netty.channel.nio.NioEventLoop.run()V+263
j  io.netty.util.concurrent.SingleThreadEventExecutor$4.run()V+44
j  io.netty.util.internal.ThreadExecutorMap$2.run()V+11
j  io.netty.util.concurrent.FastThreadLocalRunnable.run()V+4
j  java.lang.Thread.run()V+11
v  ~StubRoutines::call_stub
V  [libjvm.dylib+0x2cd743]  JavaCalls::call_helper(JavaValue*, methodHandle*, JavaCallArguments*, Thread*)+0x771
V  [libjvm.dylib+0x2cc40e]  JavaCalls::call_virtual(JavaValue*, KlassHandle, Symbol*, Symbol*, JavaCallArguments*, Thread*)+0x14a
V  [libjvm.dylib+0x2cc629]  JavaCalls::call_virtual(JavaValue*, Handle, KlassHandle, Symbol*, Symbol*, Thread*)+0x57
V  [libjvm.dylib+0x343eaf]  thread_entry(JavaThread*, Thread*)+0x78
V  [libjvm.dylib+0x55d526]  JavaThread::thread_main_inner()+0x82
V  [libjvm.dylib+0x55d3eb]  JavaThread::run()+0x169
V  [libjvm.dylib+0x48a4a9]  java_start(Thread*)+0xfa
C  [libsystem_pthread.dylib+0x68fc]  _pthread_start+0xe0
C  [libsystem_pthread.dylib+0x2443]  thread_start+0xf
C  0x0000000000000000

Java frames: (J=compiled Java code, j=interpreted, Vv=VM code)
j  sun.misc.Unsafe.putByte(Ljava/lang/Object;JB)V+0
j  io.netty.util.internal.PlatformDependent0.putByte(Ljava/lang/Object;JB)V+6
j  io.netty.util.internal.PlatformDependent.putByte(Ljava/lang/Object;JB)V+3
j  io.netty.buffer.ByteBufUtil.unsafeWriteUtf8([BJILjava/lang/CharSequence;II)I+73
j  io.netty.buffer.ByteBufUtil.writeUtf8(Lio/netty/buffer/AbstractByteBuf;IILjava/lang/CharSequence;II)I+79
j  io.netty.buffer.ByteBufUtil.writeUtf8(Lio/netty/buffer/AbstractByteBuf;IILjava/lang/CharSequence;I)I+7
j  io.netty.buffer.AbstractByteBuf.setCharSequence0(ILjava/lang/CharSequence;Ljava/nio/charset/Charset;Z)I+55
j  io.netty.buffer.AbstractByteBuf.writeCharSequence(Ljava/lang/CharSequence;Ljava/nio/charset/Charset;)I+8
j  io.netty.handler.codec.http.HttpRequestEncoder.encodeInitialLine(Lio/netty/buffer/ByteBuf;Lio/netty/handler/codec/http/HttpRequest;)V+144
j  io.netty.handler.codec.http.HttpRequestEncoder.encodeInitialLine(Lio/netty/buffer/ByteBuf;Lio/netty/handler/codec/http/HttpMessage;)V+6
j  io.netty.handler.codec.http.HttpObjectEncoder.encode(Lio/netty/channel/ChannelHandlerContext;Ljava/lang/Object;Ljava/util/List;)V+88
j  io.netty.handler.codec.http.HttpClientCodec$Encoder.encode(Lio/netty/channel/ChannelHandlerContext;Ljava/lang/Object;Ljava/util/List;)V+52
j  io.netty.handler.codec.MessageToMessageEncoder.write(Lio/netty/channel/ChannelHandlerContext;Ljava/lang/Object;Lio/netty/channel/ChannelPromise;)V+25
j  io.netty.channel.CombinedChannelDuplexHandler.write(Lio/netty/channel/ChannelHandlerContext;Ljava/lang/Object;Lio/netty/channel/ChannelPromise;)V+45
j  io.netty.channel.AbstractChannelHandlerContext.invokeWrite0(Ljava/lang/Object;Lio/netty/channel/ChannelPromise;)V+10
j  io.netty.channel.AbstractChannelHandlerContext.invokeWrite(Ljava/lang/Object;Lio/netty/channel/ChannelPromise;)V+10
j  io.netty.channel.AbstractChannelHandlerContext.write(Ljava/lang/Object;ZLio/netty/channel/ChannelPromise;)V+101
j  io.netty.channel.AbstractChannelHandlerContext.write(Ljava/lang/Object;Lio/netty/channel/ChannelPromise;)Lio/netty/channel/ChannelFuture;+4
j  io.netty.handler.stream.ChunkedWriteHandler.doFlush(Lio/netty/channel/ChannelHandlerContext;)V+369
j  io.netty.handler.stream.ChunkedWriteHandler.flush(Lio/netty/channel/ChannelHandlerContext;)V+2
j  io.netty.channel.AbstractChannelHandlerContext.invokeFlush0()V+8
j  io.netty.channel.AbstractChannelHandlerContext.invokeWriteAndFlush(Ljava/lang/Object;Lio/netty/channel/ChannelPromise;)V+14
j  io.netty.channel.AbstractChannelHandlerContext.write(Ljava/lang/Object;ZLio/netty/channel/ChannelPromise;)V+90
j  io.netty.channel.AbstractChannelHandlerContext.writeAndFlush(Ljava/lang/Object;Lio/netty/channel/ChannelPromise;)Lio/netty/channel/ChannelFuture;+4
j  io.netty.channel.DefaultChannelPipeline.writeAndFlush(Ljava/lang/Object;Lio/netty/channel/ChannelPromise;)Lio/netty/channel/ChannelFuture;+6
j  io.netty.channel.AbstractChannel.writeAndFlush(Ljava/lang/Object;Lio/netty/channel/ChannelPromise;)Lio/netty/channel/ChannelFuture;+6
j  org.asynchttpclient.netty.request.body.NettyInputStreamBody.write(Lio/netty/channel/Channel;Lorg/asynchttpclient/netty/NettyResponseFuture;)V+93
j  org.asynchttpclient.netty.request.NettyRequestSender.writeRequest(Lorg/asynchttpclient/netty/NettyResponseFuture;Lio/netty/channel/Channel;)V+209
j  org.asynchttpclient.netty.channel.NettyConnectListener.writeRequest(Lio/netty/channel/Channel;)V+101
j  org.asynchttpclient.netty.channel.NettyConnectListener.onSuccess(Lio/netty/channel/Channel;Ljava/net/InetSocketAddress;)V+232
j  org.asynchttpclient.netty.channel.NettyChannelConnector$1.onSuccess(Lio/netty/channel/Channel;)V+51
j  org.asynchttpclient.netty.SimpleChannelFutureListener.operationComplete(Lio/netty/channel/ChannelFuture;)V+18
j  org.asynchttpclient.netty.SimpleChannelFutureListener.operationComplete(Lio/netty/util/concurrent/Future;)V+5
j  io.netty.util.concurrent.DefaultPromise.notifyListener0(Lio/netty/util/concurrent/Future;Lio/netty/util/concurrent/GenericFutureListener;)V+2
j  io.netty.util.concurrent.DefaultPromise.notifyListeners0(Lio/netty/util/concurrent/DefaultFutureListeners;)V+24
j  io.netty.util.concurrent.DefaultPromise.notifyListenersNow()V+58
j  io.netty.util.concurrent.DefaultPromise.notifyListeners()V+38
j  io.netty.util.concurrent.DefaultPromise.setValue0(Ljava/lang/Object;)Z+34
j  io.netty.util.concurrent.DefaultPromise.setSuccess0(Ljava/lang/Object;)Z+12
j  io.netty.util.concurrent.DefaultPromise.trySuccess(Ljava/lang/Object;)Z+2
j  io.netty.channel.DefaultChannelPromise.trySuccess()Z+2
j  io.netty.channel.nio.AbstractNioChannel$AbstractNioUnsafe.fulfillConnectPromise(Lio/netty/channel/ChannelPromise;Z)V+14
j  io.netty.channel.nio.AbstractNioChannel$AbstractNioUnsafe.finishConnect()V+51
j  io.netty.channel.nio.NioEventLoop.processSelectedKey(Ljava/nio/channels/SelectionKey;Lio/netty/channel/nio/AbstractNioChannel;)V+78
j  io.netty.channel.nio.NioEventLoop.processSelectedKeysOptimized()V+51
j  io.netty.channel.nio.NioEventLoop.processSelectedKeys()V+8
j  io.netty.channel.nio.NioEventLoop.run()V+263
j  io.netty.util.concurrent.SingleThreadEventExecutor$4.run()V+44
j  io.netty.util.internal.ThreadExecutorMap$2.run()V+11
j  io.netty.util.concurrent.FastThreadLocalRunnable.run()V+4
j  java.lang.Thread.run()V+11
v  ~StubRoutines::call_stub

---------------  P R O C E S S  ---------------

Java Threads: ( => current thread )
=>0x00007fa903225000 JavaThread "AsyncHttpClient-1-2" daemon [_thread_in_vm, id=28163, stack(0x0000700007c01000,0x0000700007d01000)]
  0x00007fa8fe2e3000 JavaThread "Keep-Alive-Timer" daemon [_thread_blocked, id=27907, stack(0x0000700007afe000,0x0000700007bfe000)]
  0x00007fa900287000 JavaThread "Exec Stream Pumper" daemon [_thread_in_native, id=27395, stack(0x00007000079fb000,0x0000700007afb000)]
  0x00007fa900286000 JavaThread "Exec Stream Pumper" daemon [_thread_in_native, id=26883, stack(0x00007000078f8000,0x00007000079f8000)]
  0x00007fa903a0b800 JavaThread "UrlChecker-2" daemon [_thread_blocked, id=26627, stack(0x00007000077f5000,0x00007000078f5000)]
  0x00007fa901334800 JavaThread "Driver Service Executor" daemon [_thread_blocked, id=26371, stack(0x00007000076f2000,0x00007000077f2000)]
  0x00007fa901313800 JavaThread "Driver Service Executor" daemon [_thread_blocked, id=39427, stack(0x00007000075ef000,0x00007000076ef000)]
  0x00007fa903a0e000 JavaThread "Exec Default Executor" daemon [_thread_blocked, id=39683, stack(0x00007000074ec000,0x00007000075ec000)]
  0x00007fa900839800 JavaThread "ForkJoinPool.commonPool-worker-8" daemon [_thread_blocked, id=25859, stack(0x00007000073e9000,0x00007000074e9000)]
  0x00007fa8ff811800 JavaThread "ForkJoinPool.commonPool-worker-15" daemon [_thread_blocked, id=25603, stack(0x00007000072e6000,0x00007000073e6000)]
  0x00007fa902a91800 JavaThread "ForkJoinPool.commonPool-worker-6" daemon [_thread_blocked, id=25091, stack(0x00007000071e3000,0x00007000072e3000)]
  0x00007fa901816000 JavaThread "ForkJoinPool.commonPool-worker-13" daemon [_thread_blocked, id=40707, stack(0x00007000070e0000,0x00007000071e0000)]
  0x00007fa900245000 JavaThread "ForkJoinPool.commonPool-worker-4" daemon [_thread_blocked, id=40963, stack(0x0000700006fdd000,0x00007000070dd000)]
  0x00007fa901815000 JavaThread "ForkJoinPool.commonPool-worker-11" daemon [_thread_blocked, id=41475, stack(0x0000700006eda000,0x0000700006fda000)]
  0x00007fa90026b000 JavaThread "ForkJoinPool.commonPool-worker-2" daemon [_thread_blocked, id=24323, stack(0x0000700006dd7000,0x0000700006ed7000)]
  0x00007fa9031e5000 JavaThread "AsyncHttpClient-1-1" daemon [_thread_blocked, id=23811, stack(0x0000700006cd4000,0x0000700006dd4000)]
  0x00007fa8fe26f800 JavaThread "ForkJoinPool.commonPool-worker-9" daemon [_thread_blocked, id=41731, stack(0x0000700006bd1000,0x0000700006cd1000)]
  0x00007fa90129f800 JavaThread "process reaper" daemon [_thread_in_native, id=41987, stack(0x0000700006ba6000,0x0000700006bce000)]
  0x00007fa8fe1b6000 JavaThread "Attach Listener" daemon [_thread_blocked, id=22787, stack(0x0000700006aa3000,0x0000700006ba3000)]
  0x00007fa9030a9000 JavaThread "Service Thread" daemon [_thread_blocked, id=22275, stack(0x000070000689d000,0x000070000699d000)]
  0x00007fa901809800 JavaThread "C1 CompilerThread3" daemon [_thread_blocked, id=43011, stack(0x000070000679a000,0x000070000689a000)]
  0x00007fa9000e1800 JavaThread "C2 CompilerThread2" daemon [_thread_blocked, id=43267, stack(0x0000700006697000,0x0000700006797000)]
  0x00007fa9000e0800 JavaThread "C2 CompilerThread1" daemon [_thread_blocked, id=16387, stack(0x0000700006594000,0x0000700006694000)]
  0x00007fa9000df800 JavaThread "C2 CompilerThread0" daemon [_thread_blocked, id=16899, stack(0x0000700006491000,0x0000700006591000)]
  0x00007fa9028e7000 JavaThread "Monitor Ctrl-Break" daemon [_thread_in_native, id=16131, stack(0x000070000638e000,0x000070000648e000)]
  0x00007fa903840800 JavaThread "Signal Dispatcher" daemon [_thread_blocked, id=15875, stack(0x000070000628b000,0x000070000638b000)]
  0x00007fa902817000 JavaThread "Finalizer" daemon [_thread_blocked, id=19459, stack(0x0000700006082000,0x0000700006182000)]
  0x00007fa902814000 JavaThread "Reference Handler" daemon [_thread_blocked, id=13571, stack(0x0000700005f7f000,0x000070000607f000)]
  0x00007fa901009800 JavaThread "Forwarding newSession on session null to remote" [_thread_blocked, id=5635, stack(0x000070000535b000,0x000070000545b000)]

Other Threads:
  0x00007fa900013800 VMThread [stack: 0x0000700005e7c000,0x0000700005f7c000] [id=13059]
  0x00007fa902932800 WatcherThread [stack: 0x00007000069a0000,0x0000700006aa0000] [id=42243]

VM state:not at safepoint (normal execution)

VM Mutex/Monitor currently owned by a thread: None

heap address: 0x00000006c0000000, size: 4096 MB, Compressed Oops mode: Zero based, Oop shift amount: 3
Narrow klass base: 0x0000000000000000, Narrow klass shift: 3
Compressed class space size: 1073741824 Address: 0x00000007c0000000

Heap:
 PSYoungGen      total 76288K, used 47222K [0x000000076ab00000, 0x0000000770000000, 0x00000007c0000000)
  eden space 65536K, 72% used [0x000000076ab00000,0x000000076d91db38,0x000000076eb00000)
  from space 10752K, 0% used [0x000000076f580000,0x000000076f580000,0x0000000770000000)
  to   space 10752K, 0% used [0x000000076eb00000,0x000000076eb00000,0x000000076f580000)
 ParOldGen       total 120320K, used 11637K [0x00000006c0000000, 0x00000006c7580000, 0x000000076ab00000)
  object space 120320K, 9% used [0x00000006c0000000,0x00000006c0b5d7d8,0x00000006c7580000)
 Metaspace       used 24644K, capacity 26120K, committed 26368K, reserved 1073152K
  class space    used 3246K, capacity 3548K, committed 3584K, reserved 1048576K

Card table byte_map: [0x000000011f9d4000,0x00000001201d5000] byte_map_base: 0x000000011c3d4000

Marking Bits: (ParMarkBitMap*) 0x000000011070fc68
 Begin Bits: [0x000000012072b000, 0x000000012472b000)
 End Bits:   [0x000000012472b000, 0x000000012872b000)

Polling page: 0x00000001095a1000

CodeCache: size=245760Kb used=6234Kb max_used=6234Kb free=239525Kb
 bounds [0x00000001109d4000, 0x0000000110ff4000, 0x000000011f9d4000]
 total_blobs=2255 nmethods=1761 adapters=407
 compilation: enabled

Compilation events (10 events):
Event: 3.791 Thread 0x00007fa901809800 1756       3       java.lang.reflect.Method::copy (84 bytes)
Event: 3.792 Thread 0x00007fa901809800 nmethod 1756 0x0000000110fea190 code [0x0000000110fea320, 0x0000000110fea6f8]
Event: 3.792 Thread 0x00007fa901809800 1757       3       java.lang.Class$MethodArray::<init> (38 bytes)
Event: 3.792 Thread 0x00007fa901809800 nmethod 1757 0x0000000110fea810 code [0x0000000110fea9a0, 0x0000000110fead08]
Event: 3.792 Thread 0x00007fa901809800 1758       1       java.lang.reflect.Method::getRoot (5 bytes)
Event: 3.792 Thread 0x00007fa901809800 nmethod 1758 0x0000000110feae10 code [0x0000000110feaf60, 0x0000000110feb070]
Event: 3.793 Thread 0x00007fa901809800 1760       3       java.lang.Class::privateGetMethodRecursive (130 bytes)
Event: 3.794 Thread 0x00007fa901809800 nmethod 1760 0x0000000110feb0d0 code [0x0000000110feb2e0, 0x0000000110febbb8]
Event: 3.794 Thread 0x00007fa901809800 1759       3       java.lang.Class::getMethod0 (40 bytes)
Event: 3.794 Thread 0x00007fa901809800 nmethod 1759 0x0000000110febf90 code [0x0000000110fec140, 0x0000000110fec458]

GC Heap History (6 events):
Event: 1.995 GC heap before
{Heap before GC invocations=1 (full 0):
 PSYoungGen      total 76288K, used 65536K [0x000000076ab00000, 0x0000000770000000, 0x00000007c0000000)
  eden space 65536K, 100% used [0x000000076ab00000,0x000000076eb00000,0x000000076eb00000)
  from space 10752K, 0% used [0x000000076f580000,0x000000076f580000,0x0000000770000000)
  to   space 10752K, 0% used [0x000000076eb00000,0x000000076eb00000,0x000000076f580000)
 ParOldGen       total 175104K, used 0K [0x00000006c0000000, 0x00000006cab00000, 0x000000076ab00000)
  object space 175104K, 0% used [0x00000006c0000000,0x00000006c0000000,0x00000006cab00000)
 Metaspace       used 13982K, capacity 14816K, committed 15104K, reserved 1062912K
  class space    used 1745K, capacity 1950K, committed 2048K, reserved 1048576K
Event: 2.003 GC heap after
Heap after GC invocations=1 (full 0):
 PSYoungGen      total 76288K, used 7971K [0x000000076ab00000, 0x0000000770000000, 0x00000007c0000000)
  eden space 65536K, 0% used [0x000000076ab00000,0x000000076ab00000,0x000000076eb00000)
  from space 10752K, 74% used [0x000000076eb00000,0x000000076f2c8f70,0x000000076f580000)
  to   space 10752K, 0% used [0x000000076f580000,0x000000076f580000,0x0000000770000000)
 ParOldGen       total 175104K, used 16K [0x00000006c0000000, 0x00000006cab00000, 0x000000076ab00000)
  object space 175104K, 0% used [0x00000006c0000000,0x00000006c0004000,0x00000006cab00000)
 Metaspace       used 13982K, capacity 14816K, committed 15104K, reserved 1062912K
  class space    used 1745K, capacity 1950K, committed 2048K, reserved 1048576K
}
Event: 3.258 GC heap before
{Heap before GC invocations=2 (full 0):
 PSYoungGen      total 76288K, used 68387K [0x000000076ab00000, 0x0000000770000000, 0x00000007c0000000)
  eden space 65536K, 92% used [0x000000076ab00000,0x000000076e5ffd20,0x000000076eb00000)
  from space 10752K, 74% used [0x000000076eb00000,0x000000076f2c8f70,0x000000076f580000)
  to   space 10752K, 0% used [0x000000076f580000,0x000000076f580000,0x0000000770000000)
 ParOldGen       total 175104K, used 16K [0x00000006c0000000, 0x00000006cab00000, 0x000000076ab00000)
  object space 175104K, 0% used [0x00000006c0000000,0x00000006c0004000,0x00000006cab00000)
 Metaspace       used 20281K, capacity 21150K, committed 21248K, reserved 1067008K
  class space    used 2543K, capacity 2743K, committed 2816K, reserved 1048576K
Event: 3.267 GC heap after
Heap after GC invocations=2 (full 0):
 PSYoungGen      total 76288K, used 10748K [0x000000076ab00000, 0x0000000770000000, 0x00000007c0000000)
  eden space 65536K, 0% used [0x000000076ab00000,0x000000076ab00000,0x000000076eb00000)
  from space 10752K, 99% used [0x000000076f580000,0x000000076ffff108,0x0000000770000000)
  to   space 10752K, 0% used [0x000000076eb00000,0x000000076eb00000,0x000000076f580000)
 ParOldGen       total 175104K, used 1461K [0x00000006c0000000, 0x00000006cab00000, 0x000000076ab00000)
  object space 175104K, 0% used [0x00000006c0000000,0x00000006c016d580,0x00000006cab00000)
 Metaspace       used 20281K, capacity 21150K, committed 21248K, reserved 1067008K
  class space    used 2543K, capacity 2743K, committed 2816K, reserved 1048576K
}
Event: 3.267 GC heap before
{Heap before GC invocations=3 (full 1):
 PSYoungGen      total 76288K, used 10748K [0x000000076ab00000, 0x0000000770000000, 0x00000007c0000000)
  eden space 65536K, 0% used [0x000000076ab00000,0x000000076ab00000,0x000000076eb00000)
  from space 10752K, 99% used [0x000000076f580000,0x000000076ffff108,0x0000000770000000)
  to   space 10752K, 0% used [0x000000076eb00000,0x000000076eb00000,0x000000076f580000)
 ParOldGen       total 175104K, used 1461K [0x00000006c0000000, 0x00000006cab00000, 0x000000076ab00000)
  object space 175104K, 0% used [0x00000006c0000000,0x00000006c016d580,0x00000006cab00000)
 Metaspace       used 20281K, capacity 21150K, committed 21248K, reserved 1067008K
  class space    used 2543K, capacity 2743K, committed 2816K, reserved 1048576K
Event: 3.295 GC heap after
Heap after GC invocations=3 (full 1):
 PSYoungGen      total 76288K, used 0K [0x000000076ab00000, 0x0000000770000000, 0x00000007c0000000)
  eden space 65536K, 0% used [0x000000076ab00000,0x000000076ab00000,0x000000076eb00000)
  from space 10752K, 0% used [0x000000076f580000,0x000000076f580000,0x0000000770000000)
  to   space 10752K, 0% used [0x000000076eb00000,0x000000076eb00000,0x000000076f580000)
 ParOldGen       total 120320K, used 11637K [0x00000006c0000000, 0x00000006c7580000, 0x000000076ab00000)
  object space 120320K, 9% used [0x00000006c0000000,0x00000006c0b5d7d8,0x00000006c7580000)
 Metaspace       used 20281K, capacity 21150K, committed 21248K, reserved 1067008K
  class space    used 2543K, capacity 2743K, committed 2816K, reserved 1048576K
}

Deoptimization events (10 events):
Event: 2.508 Thread 0x00007fa901009800 Uncommon trap: reason=class_check action=maybe_recompile pc=0x0000000110ee0d88 method=sun.security.util.math.intpoly.IntegerPolynomial$MutableElement.setSum(Lsun/security/util/math/IntegerModuloP;)Lsun/security/util/math/intpoly/IntegerPolynomial$MutableE
Event: 2.508 Thread 0x00007fa901009800 Uncommon trap: reason=class_check action=maybe_recompile pc=0x0000000110ee0d88 method=sun.security.util.math.intpoly.IntegerPolynomial$MutableElement.setSum(Lsun/security/util/math/IntegerModuloP;)Lsun/security/util/math/intpoly/IntegerPolynomial$MutableE
Event: 2.508 Thread 0x00007fa901009800 Uncommon trap: reason=class_check action=maybe_recompile pc=0x0000000110ee0d88 method=sun.security.util.math.intpoly.IntegerPolynomial$MutableElement.setSum(Lsun/security/util/math/IntegerModuloP;)Lsun/security/util/math/intpoly/IntegerPolynomial$MutableE
Event: 2.682 Thread 0x00007fa901009800 Uncommon trap: reason=unstable_if action=reinterpret pc=0x0000000110e720b8 method=java.util.Properties$LineReader.readLine()I @ 105
Event: 2.822 Thread 0x00007fa901009800 Uncommon trap: reason=unstable_if action=reinterpret pc=0x0000000110dff1c0 method=java.io.ByteArrayInputStream.read([BII)I @ 63
Event: 2.824 Thread 0x00007fa901009800 Uncommon trap: reason=unstable_if action=reinterpret pc=0x0000000110e6ffe8 method=java.util.concurrent.ConcurrentHashMap.putVal(Ljava/lang/Object;Ljava/lang/Object;Z)Ljava/lang/Object; @ 206
Event: 2.991 Thread 0x00007fa901009800 Uncommon trap: reason=unstable_if action=reinterpret pc=0x0000000110db24e4 method=java.lang.Integer.parseInt(Ljava/lang/String;I)I @ 122
Event: 2.994 Thread 0x00007fa901009800 Uncommon trap: reason=unstable_if action=reinterpret pc=0x0000000110f03ecc method=sun.misc.URLClassPath$JarLoader.getResource(Ljava/lang/String;ZLjava/util/Set;)Lsun/misc/Resource; @ 17
Event: 3.488 Thread 0x00007fa901009800 Uncommon trap: reason=range_check action=make_not_entrant pc=0x0000000110c8d648 method=sun.reflect.generics.parser.SignatureParser.current()C @ 34
Event: 3.495 Thread 0x00007fa901009800 Uncommon trap: reason=unstable_if action=reinterpret pc=0x0000000110f6e010 method=jdk.internal.org.objectweb.asm.Type.getArgumentsAndReturnSizes(Ljava/lang/String;)I @ 47

Classes redefined (0 events):
No events

Internal exceptions (10 events):
Event: 3.016 Thread 0x00007fa901009800 Exception <a 'java/lang/NoClassDefFoundError'> (0x000000076cf903b8) thrown at [/Users/admin/Downloads/openjdk/jdk8u/hotspot/src/share/vm/prims/jvm.cpp, line 1516]
Event: 3.017 Thread 0x00007fa901009800 Exception <a 'java/lang/NoClassDefFoundError': org/apache/log4j/Priority> (0x000000076cfb5608) thrown at [/Users/admin/Downloads/openjdk/jdk8u/hotspot/src/share/vm/classfile/systemDictionary.cpp, line 204]
Event: 3.323 Thread 0x00007fa901009800 Exception <a 'java/lang/NoSuchMethodError': java.lang.Object.lambda$andFinally$1(Lorg/openqa/selenium/remote/http/HttpHandler;Lorg/openqa/selenium/remote/http/HttpRequest;)Lorg/openqa/selenium/remote/http/HttpResponse;> (0x000000076af07488) thrown at [/Us
Event: 3.427 Thread 0x00007fa903a0b800 Exception <a 'java/net/ConnectException'> (0x000000076baf7e08) thrown at [/Users/admin/Downloads/openjdk/jdk8u/hotspot/src/share/vm/prims/jni.cpp, line 711]
Event: 3.439 Thread 0x00007fa903a0b800 Exception <a 'java/net/ConnectException'> (0x000000076baf9320) thrown at [/Users/admin/Downloads/openjdk/jdk8u/hotspot/src/share/vm/prims/jni.cpp, line 711]
Event: 3.488 Thread 0x00007fa901009800 Exception <a 'java/lang/ArrayIndexOutOfBoundsException': 18> (0x000000076ba1c070) thrown at [/Users/admin/Downloads/openjdk/jdk8u/hotspot/src/share/vm/interpreter/interpreterRuntime.cpp, line 368]
Event: 3.488 Thread 0x00007fa901009800 Exception <a 'java/lang/ArrayIndexOutOfBoundsException': 109> (0x000000076ba1e318) thrown at [/Users/admin/Downloads/openjdk/jdk8u/hotspot/src/share/vm/interpreter/interpreterRuntime.cpp, line 368]
Event: 3.488 Thread 0x00007fa901009800 Exception <a 'java/lang/ArrayIndexOutOfBoundsException': 60> (0x000000076ba207d0) thrown at [/Users/admin/Downloads/openjdk/jdk8u/hotspot/src/share/vm/interpreter/interpreterRuntime.cpp, line 368]
Event: 3.525 Thread 0x00007fa901009800 Exception <a 'java/lang/NoSuchMethodError': java.lang.Object.lambda$chars$0()Ljava/util/Spliterator$OfInt;> (0x000000076bf8c2c8) thrown at [/Users/admin/Downloads/openjdk/jdk8u/hotspot/src/share/vm/interpreter/linkResolver.cpp, line 620]
Event: 3.565 Thread 0x00007fa901009800 Exception <a 'java/lang/NoSuchMethodError': java.lang.Object.lambda$negate$1(Ljava/lang/Object;)Z> (0x000000076c2fa0f8) thrown at [/Users/admin/Downloads/openjdk/jdk8u/hotspot/src/share/vm/interpreter/linkResolver.cpp, line 620]

Events (10 events):
Event: 3.817 loading class io/netty/util/Recycler$DefaultHandle
Event: 3.817 loading class io/netty/util/Recycler$DefaultHandle done
Event: 3.817 loading class io/netty/buffer/PoolChunk
Event: 3.817 loading class io/netty/buffer/PoolChunk done
Event: 3.818 loading class io/netty/buffer/PoolChunkMetric
Event: 3.818 loading class io/netty/buffer/PoolChunkMetric done
Event: 3.818 loading class io/netty/buffer/LongPriorityQueue
Event: 3.818 loading class io/netty/buffer/LongPriorityQueue done
Event: 3.819 loading class io/netty/buffer/LongLongHashMap
Event: 3.819 loading class io/netty/buffer/LongLongHashMap done


Dynamic libraries:
0x00007fff35029000 	/System/Library/Frameworks/Cocoa.framework/Versions/A/Cocoa
0x00007fff22373000 	/System/Library/Frameworks/Security.framework/Versions/A/Security
0x00007fff33231000 	/System/Library/Frameworks/ApplicationServices.framework/Versions/A/ApplicationServices
0x00007fff2a5f5000 	/usr/lib/libz.1.dylib
0x00007fff2a6bd000 	/usr/lib/libSystem.B.dylib
0x00007fff2055c000 	/System/Library/Frameworks/CoreFoundation.framework/Versions/A/CoreFoundation
0x00007fff2130b000 	/System/Library/Frameworks/Foundation.framework/Versions/C/Foundation
0x00007fff2037c000 	/usr/lib/libobjc.A.dylib
0x00007fff22da4000 	/System/Library/Frameworks/AppKit.framework/Versions/C/AppKit
0x00007fff25c68000 	/System/Library/Frameworks/CoreData.framework/Versions/A/CoreData
0x00007fff23af0000 	/System/Library/PrivateFrameworks/UIFoundation.framework/Versions/A/UIFoundation
0x00007fff2fceb000 	/System/Library/PrivateFrameworks/RemoteViewServices.framework/Versions/A/RemoteViewServices
0x00007fff28b01000 	/System/Library/PrivateFrameworks/XCTTargetBootstrap.framework/Versions/A/XCTTargetBootstrap
0x00007fff2b7e7000 	/usr/lib/libspindump.dylib
0x00007fff23d3f000 	/System/Library/Frameworks/UniformTypeIdentifiers.framework/Versions/A/UniformTypeIdentifiers
0x00007fff27305000 	/usr/lib/libapp_launch_measurement.dylib
0x00007fff27308000 	/System/Library/PrivateFrameworks/CoreAutoLayout.framework/Versions/A/CoreAutoLayout
0x00007fff28468000 	/System/Library/Frameworks/Metal.framework/Versions/A/Metal
0x00007fff2915e000 	/usr/lib/liblangid.dylib
0x00007fff28b05000 	/System/Library/PrivateFrameworks/CoreSVG.framework/Versions/A/CoreSVG
0x00007fff24d7f000 	/System/Library/PrivateFrameworks/SkyLight.framework/Versions/A/SkyLight
0x00007fff250e5000 	/System/Library/Frameworks/CoreGraphics.framework/Versions/A/CoreGraphics
0x00007fff30212000 	/System/Library/Frameworks/Accelerate.framework/Versions/A/Accelerate
0x00007fff2b225000 	/System/Library/PrivateFrameworks/IconServices.framework/Versions/A/IconServices
0x00007fff2844c000 	/System/Library/Frameworks/IOSurface.framework/Versions/A/IOSurface
0x00007fff265f0000 	/usr/lib/libDiagnosticMessagesClient.dylib
0x00007fff28aed000 	/System/Library/PrivateFrameworks/DFRFoundation.framework/Versions/A/DFRFoundation
0x00007fff226cb000 	/usr/lib/libicucore.A.dylib
0x00007fff2cd2a000 	/System/Library/Frameworks/AudioToolbox.framework/Versions/A/AudioToolbox
0x00007fff2bfb2000 	/System/Library/PrivateFrameworks/DataDetectorsCore.framework/Versions/A/DataDetectorsCore
0x00007fff24cf2000 	/usr/lib/libMobileGestalt.dylib
0x00007fff287f1000 	/System/Library/Frameworks/Carbon.framework/Versions/A/Frameworks/HIToolbox.framework/Versions/A/HIToolbox
0x00007fff26d4a000 	/System/Library/Frameworks/QuartzCore.framework/Versions/A/QuartzCore
0x00007fff2fd23000 	/System/Library/Frameworks/Carbon.framework/Versions/A/Frameworks/SpeechRecognition.framework/Versions/A/SpeechRecognition
0x00007fff2706a000 	/System/Library/PrivateFrameworks/CoreUI.framework/Versions/A/CoreUI
0x00007fff21ce1000 	/System/Library/Frameworks/CoreAudio.framework/Versions/A/CoreAudio
0x00007fff266db000 	/System/Library/Frameworks/DiskArbitration.framework/Versions/A/DiskArbitration
0x00007fff2bbb5000 	/System/Library/PrivateFrameworks/MultitouchSupport.framework/Versions/A/MultitouchSupport
0x00007fff2bfa9000 	/System/Library/PrivateFrameworks/InternationalSupport.framework/Versions/A/InternationalSupport
0x00007fff24cf1000 	/usr/lib/libenergytrace.dylib
0x00007fff22c9b000 	/System/Library/Frameworks/IOKit.framework/Versions/A/IOKit
0x00007fff30056000 	/System/Library/Frameworks/CoreServices.framework/Versions/A/CoreServices
0x00007fff27297000 	/System/Library/PrivateFrameworks/PerformanceAnalysis.framework/Versions/A/PerformanceAnalysis
0x00007fff6bbc3000 	/System/Library/Frameworks/OpenGL.framework/Versions/A/OpenGL
0x00007fff2c02d000 	/System/Library/PrivateFrameworks/UserActivity.framework/Versions/A/UserActivity
0x00007fff2576f000 	/System/Library/Frameworks/ColorSync.framework/Versions/A/ColorSync
0x00007fff28d6c000 	/System/Library/Frameworks/CoreImage.framework/Versions/A/CoreImage
0x00007fff21afb000 	/System/Library/Frameworks/CoreText.framework/Versions/A/CoreText
0x00007fff28b2f000 	/System/Library/Frameworks/ImageIO.framework/Versions/A/ImageIO
0x00007fff2a6c3000 	/System/Library/PrivateFrameworks/SoftLinking.framework/Versions/A/SoftLinking
0x00007fff27350000 	/usr/lib/libxml2.2.dylib
0x00007fff20442000 	/usr/lib/libc++.1.dylib
0x00007fff2a934000 	/usr/lib/libcompression.dylib
0x00007fff2bedb000 	/System/Library/PrivateFrameworks/TextureIO.framework/Versions/A/TextureIO
0x00007fff2af63000 	/usr/lib/libate.dylib
0x00007fff2a6b7000 	/usr/lib/system/libcache.dylib
0x00007fff2a673000 	/usr/lib/system/libcommonCrypto.dylib
0x00007fff2a69d000 	/usr/lib/system/libcompiler_rt.dylib
0x00007fff2a692000 	/usr/lib/system/libcopyfile.dylib
0x00007fff2026c000 	/usr/lib/system/libcorecrypto.dylib
0x00007fff20337000 	/usr/lib/system/libdispatch.dylib
0x00007fff204ea000 	/usr/lib/system/libdyld.dylib
0x00007fff2a6ae000 	/usr/lib/system/libkeymgr.dylib
0x00007fff2dac1000 	/usr/lib/system/liblaunch.dylib
0x00007fff2a651000 	/usr/lib/system/libmacho.dylib
0x00007fff29e49000 	/usr/lib/system/libquarantine.dylib
0x00007fff2a6ab000 	/usr/lib/system/libremovefile.dylib
0x00007fff24d4f000 	/usr/lib/system/libsystem_asl.dylib
0x00007fff2021c000 	/usr/lib/system/libsystem_blocks.dylib
0x00007fff203b9000 	/usr/lib/system/libsystem_c.dylib
0x00007fff2a6a5000 	/usr/lib/system/libsystem_collections.dylib
0x00007fff2914f000 	/usr/lib/system/libsystem_configuration.dylib
0x00007fff2843b000 	/usr/lib/system/libsystem_containermanager.dylib
0x00007fff2a3f4000 	/usr/lib/system/libsystem_coreservices.dylib
0x00007fff2292b000 	/usr/lib/system/libsystem_darwin.dylib
0x00007fff2a6af000 	/usr/lib/system/libsystem_dnssd.dylib
0x00007fff203b6000 	/usr/lib/system/libsystem_featureflags.dylib
0x00007fff20530000 	/usr/lib/system/libsystem_info.dylib
0x00007fff2a608000 	/usr/lib/system/libsystem_m.dylib
0x00007fff2030a000 	/usr/lib/system/libsystem_malloc.dylib
0x00007fff24ce2000 	/usr/lib/system/libsystem_networkextension.dylib
0x00007fff22d4a000 	/usr/lib/system/libsystem_notify.dylib
0x00007fff2ff58000 	/usr/lib/system/libsystem_product_info_filter.dylib
0x00007fff29153000 	/usr/lib/system/libsystem_sandbox.dylib
0x00007fff2a6a8000 	/usr/lib/system/libsystem_secinit.dylib
0x00007fff204ae000 	/usr/lib/system/libsystem_kernel.dylib
0x00007fff20526000 	/usr/lib/system/libsystem_platform.dylib
0x00007fff204de000 	/usr/lib/system/libsystem_pthread.dylib
0x00007fff2642c000 	/usr/lib/system/libsystem_symptoms.dylib
0x00007fff20254000 	/usr/lib/system/libsystem_trace.dylib
0x00007fff2a67f000 	/usr/lib/system/libunwind.dylib
0x00007fff2021e000 	/usr/lib/system/libxpc.dylib
0x00007fff20498000 	/usr/lib/libc++abi.dylib
0x00007fff2a68a000 	/usr/lib/liboah.dylib
0x00007fff2ad48000 	/usr/lib/liblzma.5.dylib
0x00007fff2101f000 	/System/Library/Frameworks/SystemConfiguration.framework/Versions/A/SystemConfiguration
0x00007fff2a6bf000 	/usr/lib/libfakelink.dylib
0x00007fff24843000 	/System/Library/Frameworks/CFNetwork.framework/Versions/A/CFNetwork
0x00007fff2a7ff000 	/usr/lib/libarchive.2.dylib
0x00007fff2109d000 	/usr/lib/libCRFSuite.dylib
0x00007fff29e70000 	/usr/lib/libbsm.0.dylib
0x00007fff241bc000 	/usr/lib/libnetwork.dylib
0x00007fff2a6c4000 	/usr/lib/libpcap.A.dylib
0x00007fff26425000 	/usr/lib/libdns_services.dylib
0x00007fff2ad61000 	/usr/lib/libcoretls_cfhelpers.dylib
0x00007fff2a8fe000 	/usr/lib/libapple_nghttp2.dylib
0x00007fff2a657000 	/usr/lib/system/libkxld.dylib
0x00007fff2609e000 	/usr/lib/libsqlite3.dylib
0x00007fff2a3d7000 	/System/Library/PrivateFrameworks/AppleFSCompression.framework/Versions/A/AppleFSCompression
0x00007fff29e58000 	/usr/lib/libcoretls.dylib
0x00007fff2a92f000 	/usr/lib/libpam.2.dylib
0x00007fff2ae5f000 	/usr/lib/libxar.1.dylib
0x00007fff2915a000 	/System/Library/PrivateFrameworks/AppleSystemInfo.framework/Versions/A/AppleSystemInfo
0x00007fff29a9a000 	/System/Library/PrivateFrameworks/IOMobileFramebuffer.framework/Versions/A/IOMobileFramebuffer
0x00007fff2a3e7000 	/usr/lib/libbz2.1.0.dylib
0x00007fff2a6fc000 	/usr/lib/libiconv.2.dylib
0x00007fff2a650000 	/usr/lib/libcharset.1.dylib
0x00007fff272d3000 	/System/Library/Frameworks/CoreServices.framework/Versions/A/Frameworks/FSEvents.framework/Versions/A/FSEvents
0x00007fff22935000 	/System/Library/Frameworks/CoreServices.framework/Versions/A/Frameworks/CarbonCore.framework/Versions/A/CarbonCore
0x00007fff26640000 	/System/Library/Frameworks/CoreServices.framework/Versions/A/Frameworks/Metadata.framework/Versions/A/Metadata
0x00007fff2a3f9000 	/System/Library/Frameworks/CoreServices.framework/Versions/A/Frameworks/OSServices.framework/Versions/A/OSServices
0x00007fff2a871000 	/System/Library/Frameworks/CoreServices.framework/Versions/A/Frameworks/SearchKit.framework/Versions/A/SearchKit
0x00007fff263b0000 	/System/Library/Frameworks/CoreServices.framework/Versions/A/Frameworks/AE.framework/Versions/A/AE
0x00007fff209fa000 	/System/Library/Frameworks/CoreServices.framework/Versions/A/Frameworks/LaunchServices.framework/Versions/A/LaunchServices
0x00007fff2acf8000 	/System/Library/Frameworks/CoreServices.framework/Versions/A/Frameworks/DictionaryServices.framework/Versions/A/DictionaryServices
0x00007fff272e0000 	/System/Library/Frameworks/CoreServices.framework/Versions/A/Frameworks/SharedFileList.framework/Versions/A/SharedFileList
0x00007fff29e4c000 	/usr/lib/libCheckFix.dylib
0x00007fff24d66000 	/System/Library/PrivateFrameworks/TCC.framework/Versions/A/TCC
0x00007fff29160000 	/System/Library/PrivateFrameworks/CoreNLP.framework/Versions/A/CoreNLP
0x00007fff265f3000 	/System/Library/PrivateFrameworks/MetadataUtilities.framework/Versions/A/MetadataUtilities
0x00007fff210d2000 	/usr/lib/libmecabra.dylib
0x00007fff2a156000 	/System/Library/Frameworks/MLCompute.framework/Versions/A/MLCompute
0x00007fff29e81000 	/usr/lib/libmecab.dylib
0x00007fff29ecb000 	/usr/lib/libgermantok.dylib
0x00007fff2a8d9000 	/usr/lib/libThaiTokenizer.dylib
0x00007fff2ae9a000 	/usr/lib/libChineseTokenizer.dylib
0x00007fff2a92d000 	/System/Library/Frameworks/MetalPerformanceShaders.framework/Versions/A/MetalPerformanceShaders
0x00007fff266e2000 	/System/Library/Frameworks/Accelerate.framework/Versions/A/Frameworks/vImage.framework/Versions/A/vImage
0x00007fff30030000 	/System/Library/Frameworks/Accelerate.framework/Versions/A/Frameworks/vecLib.framework/Versions/A/vecLib
0x00007fff2aea5000 	/System/Library/Frameworks/Accelerate.framework/Versions/A/Frameworks/vecLib.framework/Versions/A/libvMisc.dylib
0x00007fff298b5000 	/System/Library/Frameworks/Accelerate.framework/Versions/A/Frameworks/vecLib.framework/Versions/A/libvDSP.dylib
0x00007fff20d05000 	/System/Library/Frameworks/Accelerate.framework/Versions/A/Frameworks/vecLib.framework/Versions/A/libBLAS.dylib
0x00007fff2a95a000 	/System/Library/Frameworks/Accelerate.framework/Versions/A/Frameworks/vecLib.framework/Versions/A/libLAPACK.dylib
0x00007fff29ed1000 	/System/Library/Frameworks/Accelerate.framework/Versions/A/Frameworks/vecLib.framework/Versions/A/libLinearAlgebra.dylib
0x00007fff2a916000 	/System/Library/Frameworks/Accelerate.framework/Versions/A/Frameworks/vecLib.framework/Versions/A/libSparseBLAS.dylib
0x00007fff2a954000 	/System/Library/Frameworks/Accelerate.framework/Versions/A/Frameworks/vecLib.framework/Versions/A/libQuadrature.dylib
0x00007fff2920c000 	/System/Library/Frameworks/Accelerate.framework/Versions/A/Frameworks/vecLib.framework/Versions/A/libBNNS.dylib
0x00007fff20fb0000 	/System/Library/Frameworks/Accelerate.framework/Versions/A/Frameworks/vecLib.framework/Versions/A/libSparse.dylib
0x00007fff290e8000 	/System/Library/Frameworks/MetalPerformanceShaders.framework/Versions/A/Frameworks/MPSCore.framework/Versions/A/MPSCore
0x00007fff2a346000 	/System/Library/Frameworks/MetalPerformanceShaders.framework/Versions/A/Frameworks/MPSImage.framework/Versions/A/MPSImage
0x00007fff29ee7000 	/System/Library/Frameworks/MetalPerformanceShaders.framework/Versions/A/Frameworks/MPSNeuralNetwork.framework/Versions/A/MPSNeuralNetwork
0x00007fff2a2b8000 	/System/Library/Frameworks/MetalPerformanceShaders.framework/Versions/A/Frameworks/MPSMatrix.framework/Versions/A/MPSMatrix
0x00007fff2a106000 	/System/Library/Frameworks/MetalPerformanceShaders.framework/Versions/A/Frameworks/MPSRayIntersector.framework/Versions/A/MPSRayIntersector
0x00007fff2a2ef000 	/System/Library/Frameworks/MetalPerformanceShaders.framework/Versions/A/Frameworks/MPSNDArray.framework/Versions/A/MPSNDArray
0x00007fff20c30000 	/System/Library/PrivateFrameworks/MetalTools.framework/Versions/A/MetalTools
0x00007fff29158000 	/System/Library/PrivateFrameworks/AggregateDictionary.framework/Versions/A/AggregateDictionary
0x00007fff265c0000 	/System/Library/PrivateFrameworks/CoreAnalytics.framework/Versions/A/CoreAnalytics
0x00007fff2a8db000 	/System/Library/PrivateFrameworks/AppleSauce.framework/Versions/A/AppleSauce
0x00007fff2845e000 	/System/Library/PrivateFrameworks/IOAccelerator.framework/Versions/A/IOAccelerator
0x00007fff6bbb7000 	/System/Library/Frameworks/OpenGL.framework/Versions/A/Libraries/libCoreFSCache.dylib
0x00007fff2166a000 	/System/Library/PrivateFrameworks/LanguageModeling.framework/Versions/A/LanguageModeling
0x00007fff29a88000 	/System/Library/PrivateFrameworks/CoreEmoji.framework/Versions/A/CoreEmoji
0x00007fff29205000 	/System/Library/PrivateFrameworks/LinguisticData.framework/Versions/A/LinguisticData
0x00007fff20f62000 	/System/Library/PrivateFrameworks/Lexicon.framework/Versions/A/Lexicon
0x00007fff2a7ed000 	/usr/lib/libcmph.dylib
0x00007fff272b3000 	/System/Library/Frameworks/OpenDirectory.framework/Versions/A/Frameworks/CFOpenDirectory.framework/Versions/A/CFOpenDirectory
0x00007fff272a3000 	/System/Library/Frameworks/OpenDirectory.framework/Versions/A/OpenDirectory
0x00007fff2ad63000 	/System/Library/PrivateFrameworks/APFS.framework/Versions/A/APFS
0x00007fff29dae000 	/System/Library/Frameworks/SecurityFoundation.framework/Versions/A/SecurityFoundation
0x00007fff2ae6d000 	/usr/lib/libutil.dylib
0x00007fff22c60000 	/System/Library/PrivateFrameworks/CoreServicesStore.framework/Versions/A/CoreServicesStore
0x00007fff29e44000 	/System/Library/Frameworks/ServiceManagement.framework/Versions/A/ServiceManagement
0x00007fff2ae71000 	/usr/lib/libxslt.1.dylib
0x00007fff29e3a000 	/System/Library/PrivateFrameworks/BackgroundTaskManagement.framework/Versions/A/BackgroundTaskManagement
0x00007fff2be25000 	/System/Library/Frameworks/ImageIO.framework/Versions/A/Resources/libRadiance.dylib
0x00007fff2be2f000 	/System/Library/Frameworks/ImageIO.framework/Versions/A/Resources/libJPEG.dylib
0x00007fff2bd7f000 	/System/Library/Frameworks/ImageIO.framework/Versions/A/Resources/libPng.dylib
0x00007fff2bda0000 	/System/Library/Frameworks/ImageIO.framework/Versions/A/Resources/libTIFF.dylib
0x00007fff2be84000 	/System/Library/Frameworks/ImageIO.framework/Versions/A/Resources/libGIF.dylib
0x00007fff2bad1000 	/System/Library/Frameworks/ImageIO.framework/Versions/A/Resources/libJP2.dylib
0x00007fff2b1ec000 	/usr/lib/libexpat.1.dylib
0x00007fff2ba87000 	/System/Library/PrivateFrameworks/AppleJPEG.framework/Versions/A/AppleJPEG
0x00007fff28694000 	/System/Library/PrivateFrameworks/FontServices.framework/libFontParser.dylib
0x00007fff26367000 	/System/Library/PrivateFrameworks/RunningBoardServices.framework/Versions/A/RunningBoardServices
0x00007fff2bbb1000 	/System/Library/PrivateFrameworks/WatchdogClient.framework/Versions/A/WatchdogClient
0x00007fff21753000 	/System/Library/Frameworks/CoreDisplay.framework/Versions/A/CoreDisplay
0x00007fff285a9000 	/System/Library/Frameworks/CoreMedia.framework/Versions/A/CoreMedia
0x00007fff27433000 	/System/Library/Frameworks/CoreVideo.framework/Versions/A/CoreVideo
0x00007fff2bbec000 	/System/Library/Frameworks/VideoToolbox.framework/Versions/A/VideoToolbox
0x00007fff262e7000 	/System/Library/PrivateFrameworks/BaseBoard.framework/Versions/A/BaseBoard
0x00007fff2b331000 	/System/Library/PrivateFrameworks/PersistentConnection.framework/Versions/A/PersistentConnection
0x00007fff26088000 	/System/Library/PrivateFrameworks/ProtocolBuffer.framework/Versions/A/ProtocolBuffer
0x00007fff262cf000 	/System/Library/PrivateFrameworks/CommonUtilities.framework/Versions/A/CommonUtilities
0x00007fff2ba4a000 	/System/Library/PrivateFrameworks/Bom.framework/Versions/A/Bom
0x00007fff2be1d000 	/System/Library/PrivateFrameworks/GPUWrangler.framework/Versions/A/GPUWrangler
0x00007fff2be00000 	/System/Library/PrivateFrameworks/IOPresentment.framework/Versions/A/IOPresentment
0x00007fff2be29000 	/System/Library/PrivateFrameworks/DSExternalDisplay.framework/Versions/A/DSExternalDisplay
0x00007fff2be89000 	/System/Library/PrivateFrameworks/CMCaptureCore.framework/Versions/A/CMCaptureCore
0x00007fff2b7cd000 	/System/Library/PrivateFrameworks/AppServerSupport.framework/Versions/A/AppServerSupport
0x00007fff2d864000 	/System/Library/PrivateFrameworks/perfdata.framework/Versions/A/perfdata
0x00007fff29d9d000 	/System/Library/PrivateFrameworks/AssertionServices.framework/Versions/A/AssertionServices
0x00007fff2188a000 	/System/Library/PrivateFrameworks/AudioToolboxCore.framework/Versions/A/AudioToolboxCore
0x00007fff2858c000 	/System/Library/PrivateFrameworks/caulk.framework/Versions/A/caulk
0x00007fff3cd10000 	/System/Library/PrivateFrameworks/SystemPolicy.framework/Versions/A/SystemPolicy
0x00007fff2affb000 	/usr/lib/libIOReport.dylib
0x00007fff2d0a0000 	/usr/lib/libSMC.dylib
0x00007fff2bd4b000 	/usr/lib/libAudioToolboxUtility.dylib
0x00007fff3d66d000 	/usr/lib/libmis.dylib
0x00007fff6bc13000 	/System/Library/Frameworks/OpenGL.framework/Versions/A/Libraries/libGLU.dylib
0x00007fff6bbd6000 	/System/Library/Frameworks/OpenGL.framework/Versions/A/Libraries/libGFXShared.dylib
0x00007fff6bde4000 	/System/Library/Frameworks/OpenGL.framework/Versions/A/Libraries/libGL.dylib
0x00007fff6bbdf000 	/System/Library/Frameworks/OpenGL.framework/Versions/A/Libraries/libGLImage.dylib
0x00007fff6bbd3000 	/System/Library/Frameworks/OpenGL.framework/Versions/A/Libraries/libCVMSPluginSupport.dylib
0x00007fff6bbbe000 	/System/Library/Frameworks/OpenGL.framework/Versions/A/Libraries/libCoreVMClient.dylib
0x00007fff6d22e000 	/System/Library/Frameworks/OpenCL.framework/Versions/A/OpenCL
0x00007fff2b35a000 	/System/Library/PrivateFrameworks/GraphVisualizer.framework/Versions/A/GraphVisualizer
0x00007fff2b369000 	/System/Library/PrivateFrameworks/FaceCore.framework/Versions/A/FaceCore
0x00007fff2b785000 	/System/Library/PrivateFrameworks/OTSVG.framework/Versions/A/OTSVG
0x00007fff27028000 	/System/Library/Frameworks/ApplicationServices.framework/Versions/A/Frameworks/ATS.framework/Versions/A/Resources/libFontRegistry.dylib
0x00007fff2b7d4000 	/System/Library/PrivateFrameworks/FontServices.framework/libhvf.dylib
0x00007fff2b198000 	/System/Library/PrivateFrameworks/AppleVA.framework/Versions/A/AppleVA
0x00007fff2cee8000 	/System/Library/Frameworks/ApplicationServices.framework/Versions/A/Frameworks/ATS.framework/Versions/A/ATS
0x00007fff2d1fb000 	/System/Library/Frameworks/ApplicationServices.framework/Versions/A/Frameworks/ColorSyncLegacy.framework/Versions/A/ColorSyncLegacy
0x00007fff25866000 	/System/Library/Frameworks/ApplicationServices.framework/Versions/A/Frameworks/HIServices.framework/Versions/A/HIServices
0x00007fff2d1e0000 	/System/Library/Frameworks/ApplicationServices.framework/Versions/A/Frameworks/LangAnalysis.framework/Versions/A/LangAnalysis
0x00007fff2be93000 	/System/Library/Frameworks/ApplicationServices.framework/Versions/A/Frameworks/PrintCore.framework/Versions/A/PrintCore
0x00007fff2d203000 	/System/Library/Frameworks/ApplicationServices.framework/Versions/A/Frameworks/QD.framework/Versions/A/QD
0x00007fff2ced8000 	/System/Library/Frameworks/ApplicationServices.framework/Versions/A/Frameworks/SpeechSynthesis.framework/Versions/A/SpeechSynthesis
0x00007fff2be54000 	/System/Library/Frameworks/ApplicationServices.framework/Versions/A/Frameworks/ATSUI.framework/Versions/A/ATSUI
0x00007fff2d180000 	/usr/lib/libcups.2.dylib
0x00007fff2d1f0000 	/System/Library/PrivateFrameworks/NetAuth.framework/Versions/A/NetAuth
0x00007fff2d87f000 	/System/Library/Frameworks/Kerberos.framework/Versions/A/Kerberos
0x00007fff2d88f000 	/System/Library/Frameworks/GSS.framework/Versions/A/GSS
0x00007fff2cf55000 	/usr/lib/libresolv.9.dylib
0x00007fff2b7ea000 	/System/Library/PrivateFrameworks/Heimdal.framework/Versions/A/Heimdal
0x00007fff33546000 	/System/Library/Frameworks/Kerberos.framework/Versions/A/Libraries/libHeimdalProxy.dylib
0x00007fff26434000 	/System/Library/Frameworks/Network.framework/Versions/A/Network
0x00007fff2b206000 	/usr/lib/libheimdal-asn1.dylib
0x00007fff2d8e0000 	/System/Library/PrivateFrameworks/CommonAuth.framework/Versions/A/CommonAuth
0x00007fff27481000 	/System/Library/PrivateFrameworks/login.framework/Versions/A/Frameworks/loginsupport.framework/Versions/A/loginsupport
0x00007fff2ce5f000 	/System/Library/PrivateFrameworks/AudioSession.framework/Versions/A/AudioSession
0x00007fff2cec5000 	/usr/lib/libAudioStatistics.dylib
0x00007fff2b292000 	/System/Library/PrivateFrameworks/MediaExperience.framework/Versions/A/MediaExperience
0x00007fff2ccf8000 	/System/Library/PrivateFrameworks/AudioSession.framework/libSessionUtility.dylib
0x00007fff2d870000 	/usr/lib/libperfcheck.dylib
0x00007fff2d20f000 	/System/Library/PrivateFrameworks/AudioResourceArbitration.framework/Versions/A/AudioResourceArbitration
0x00007fff2b210000 	/System/Library/PrivateFrameworks/IconFoundation.framework/Versions/A/IconFoundation
0x00007fff2fd13000 	/System/Library/PrivateFrameworks/SpeechRecognitionCore.framework/Versions/A/SpeechRecognitionCore
0x0000000109551000 	/System/Library/CoreServices/Encodings/libCyrillicConverter.dylib
0x0000000110000000 	/Library/Java/JavaVirtualMachines/openlogic-openjdk-8.jdk/Contents/Home/jre/lib/server/libjvm.dylib
0x000000010955d000 	/Library/Java/JavaVirtualMachines/openlogic-openjdk-8.jdk/Contents/Home/jre/lib/libverify.dylib
0x000000010956e000 	/Library/Java/JavaVirtualMachines/openlogic-openjdk-8.jdk/Contents/Home/jre/lib/libjava.dylib
0x00000001095a2000 	/Library/Java/JavaVirtualMachines/openlogic-openjdk-8.jdk/Contents/Home/jre/lib/libinstrument.dylib
0x000000010960e000 	/Library/Java/JavaVirtualMachines/openlogic-openjdk-8.jdk/Contents/Home/jre/lib/libzip.dylib
0x000000012b73e000 	/Library/Java/JavaVirtualMachines/openlogic-openjdk-8.jdk/Contents/Home/jre/lib/libnio.dylib
0x000000012b751000 	/Library/Java/JavaVirtualMachines/openlogic-openjdk-8.jdk/Contents/Home/jre/lib/libnet.dylib
0x000000012bb97000 	/Library/Java/JavaVirtualMachines/openlogic-openjdk-8.jdk/Contents/Home/jre/lib/libmanagement.dylib
0x000000012bba7000 	/Library/Java/JavaVirtualMachines/openlogic-openjdk-8.jdk/Contents/Home/jre/lib/libsunec.dylib

VM Arguments:
jvm_args: -Dorg.jetbrains.run.directory=/Users/o.pendrak/Downloads/Kakamber/src/test/resources/scenarios -javaagent:/Applications/IntelliJ IDEA CE.app/Contents/lib/idea_rt.jar=60172:/Applications/IntelliJ IDEA CE.app/Contents/bin -Dfile.encoding=UTF-8 
java_command: io.cucumber.core.cli.Main --plugin org.jetbrains.plugins.cucumber.java.run.CucumberJvm5SMFormatter --name ^Сайт с картинами по номерам видно на первой странице выдачи результатов$ --glue step --glue support /Users/o.pendrak/Downloads/Kakamber/src/test/resources/scenarios/yandex.feature
java_class_path (initial): /Library/Java/JavaVirtualMachines/openlogic-openjdk-8.jdk/Contents/Home/jre/lib/charsets.jar:/Library/Java/JavaVirtualMachines/openlogic-openjdk-8.jdk/Contents/Home/jre/lib/ext/cldrdata.jar:/Library/Java/JavaVirtualMachines/openlogic-openjdk-8.jdk/Contents/Home/jre/lib/ext/dnsns.jar:/Library/Java/JavaVirtualMachines/openlogic-openjdk-8.jdk/Contents/Home/jre/lib/ext/jaccess.jar:/Library/Java/JavaVirtualMachines/openlogic-openjdk-8.jdk/Contents/Home/jre/lib/ext/localedata.jar:/Library/Java/JavaVirtualMachines/openlogic-openjdk-8.jdk/Contents/Home/jre/lib/ext/nashorn.jar:/Library/Java/JavaVirtualMachines/openlogic-openjdk-8.jdk/Contents/Home/jre/lib/ext/sunec.jar:/Library/Java/JavaVirtualMachines/openlogic-openjdk-8.jdk/Contents/Home/jre/lib/ext/sunjce_provider.jar:/Library/Java/JavaVirtualMachines/openlogic-openjdk-8.jdk/Contents/Home/jre/lib/ext/sunpkcs11.jar:/Library/Java/JavaVirtualMachines/openlogic-openjdk-8.jdk/Contents/Home/jre/lib/ext/zipfs.jar:/Library/Java/JavaVirtualMachines/openlogic-openjdk-8.jdk/Contents/Home/jre/lib/jce.jar:/Library/Java/JavaVirtualMachines/openlogic-openjdk-8.jdk/Contents/Home/jre/lib/jfr.jar:/Library/Java/JavaVirtualMachines/openlogic-openjdk-8.jdk/Contents/Home/jre/lib/jsse.jar:/Library/Java/JavaVirtualMachines/openlogic-openjdk-8.jdk/Contents/Home/jre/lib/management-agent.jar:/Library/Java/JavaVirtualMachines/openlogic-openjdk-8.jdk/Contents/Home/jre/lib/resources.jar:/Library/Java/JavaVirtualMachines/openlogic-openjdk-8.jdk/Contents/Home/jre/lib/rt.jar:/Library/Java/JavaVirtualMachines/openlogic-openjdk-8.jdk/Contents/Home/lib/dt.jar:/Library/Java/JavaVirtualMachines/openlogic-openjdk-8.jdk/Contents/Home/lib/jconsole.jar:/Library/Java/JavaVirtualMachines/openlogic-openjdk-8.jdk/Contents/Home/lib/sa-jdi.jar:/Library/Java/JavaVirtualMachines/openlogic-openjdk-8.jdk/Contents/Home/lib/tools.jar:/Users/o.pendrak/Downloads/Kakamber/build/classes/java/test:/Users/o.pendrak/Downloads/Kakamber/build/resources/te
Launcher Type: SUN_STANDARD

Environment Variables:
JAVA_HOME=
PATH=/usr/local/opt/python@3.8/bin:/Users/o.pendrak/.rvm/gems/ruby-2.6.6/bin:/Users/o.pendrak/.rvm/gems/ruby-2.6.6@global/bin:/Users/o.pendrak/.rvm/rubies/ruby-2.6.6/bin:/Users/o.pendrak/Library/Android/sdk/build-tools/31.0.0:/Users/o.pendrak/Library/Android/sdk/tools/bin:/Users/o.pendrak/Library/Android/sdk/platform-tools:/Users/o.pendrak/Library/Android/sdk:/usr/local/bin:/usr/bin:/bin:/usr/sbin:/sbin:/Applications/VMware Fusion.app/Contents/Public:/opt/osquery:/opt/puppetlabs/bin:/opt/X11/bin:/Library/Apple/usr/bin:/opt/pfutil:/Users/o.pendrak/.rvm/bin
SHELL=/bin/bash
DISPLAY=/private/tmp/com.apple.launchd.klGLA7Ir54/org.xquartz:0

Signal Handlers:
SIGSEGV: [libjvm.dylib+0x59bf4f], sa_mask[0]=11111111011111110111111111111111, sa_flags=SA_ONSTACK|SA_RESTART|SA_SIGINFO
SIGBUS: [libjvm.dylib+0x59bf4f], sa_mask[0]=11111111011111110111111111111111, sa_flags=SA_RESTART|SA_SIGINFO
SIGFPE: [libjvm.dylib+0x48c941], sa_mask[0]=11111111011111110111111111111111, sa_flags=SA_RESTART|SA_SIGINFO
SIGPIPE: [libjvm.dylib+0x48c941], sa_mask[0]=11111111011111110111111111111111, sa_flags=SA_RESTART|SA_SIGINFO
SIGXFSZ: [libjvm.dylib+0x48c941], sa_mask[0]=11111111011111110111111111111111, sa_flags=SA_RESTART|SA_SIGINFO
SIGILL: [libjvm.dylib+0x48c941], sa_mask[0]=11111111011111110111111111111111, sa_flags=SA_RESTART|SA_SIGINFO
SIGUSR1: SIG_DFL, sa_mask[0]=00000000000000000000000000000000, sa_flags=none
SIGUSR2: [libjvm.dylib+0x48d23a], sa_mask[0]=00100000000000000000000000000000, sa_flags=SA_RESTART|SA_SIGINFO
SIGHUP: [libjvm.dylib+0x48b3f9], sa_mask[0]=11111111011111110111111111111111, sa_flags=SA_RESTART|SA_SIGINFO
SIGINT: [libjvm.dylib+0x48b3f9], sa_mask[0]=11111111011111110111111111111111, sa_flags=SA_RESTART|SA_SIGINFO
SIGTERM: [libjvm.dylib+0x48b3f9], sa_mask[0]=11111111011111110111111111111111, sa_flags=SA_RESTART|SA_SIGINFO
SIGQUIT: [libjvm.dylib+0x48b3f9], sa_mask[0]=11111111011111110111111111111111, sa_flags=SA_RESTART|SA_SIGINFO


---------------  S Y S T E M  ---------------

OS:Bsduname:Darwin 20.6.0 Darwin Kernel Version 20.6.0: Tue Oct 12 18:33:42 PDT 2021; root:xnu-7195.141.8~1/RELEASE_X86_64 x86_64
rlimit: STACK 8192k, CORE 0k, NPROC 2784, NOFILE 10240, AS infinity
load average:3.36 3.80 3.61

CPU:total 12 (initial active 12) (6 cores per cpu, 2 threads per core) family 6 model 158 stepping 10, cmov, cx8, fxsr, mmx, sse, sse2, sse3, ssse3, sse4.1, sse4.2, popcnt, avx, avx2, aes, clmul, erms, 3dnowpref, lzcnt, ht, tsc, tscinvbit, bmi1, bmi2, adx

Memory: 4k page, physical 16777216k(89916k free)

/proc/meminfo:


vm_info: OpenJDK 64-Bit Server VM (25.262-b10) for bsd-amd64 JRE (1.8.0_262-internal-b10), built on Aug  1 2020 12:09:44 by "admin" with gcc 4.2.1 Compatible Apple LLVM 10.0.0 (clang-1000.11.45.5)

time: Fri May  6 21:11:43 2022
timezone: +05
elapsed time: 3 seconds (0d 0h 0m 3s)

